{
    "/js/app.js": "/js/app.js",
    "/css/app.css": "/css/app.css",
    "/modules/ACL/js/app.js": "/modules/ACL/js/app.js",
    "/modules/BlockChain/js/app.js": "/modules/BlockChain/js/app.js",
    "/modules/IO/js/app.js": "/modules/IO/js/app.js"
}
